{
  "extends": [
    "tslint:recommended"
  ],
  "rules": {
    "member-access": false,
    "max-line-length": false,
    "max-classes-per-file": false,
    "no-console": false,
    "prefer-const": false,
    "curly": false,
    "object-literal-sort-keys": false,
    "radix": false,
    "quotemark": {
      "options": "double"
    },
    "arrow-parens": {
      "options": "ban-single-arg-parens"
    }
  }
}
